%YAML 1.1
%TAG !u! tag:unity3d.com,2011:
--- !u!114 &11400000
MonoBehaviour:
  m_ObjectHideFlags: 0
  m_CorrespondingSourceObject: {fileID: 0}
  m_PrefabInstance: {fileID: 0}
  m_PrefabAsset: {fileID: 0}
  m_GameObject: {fileID: 0}
  m_Enabled: 1
  m_EditorHideFlags: 0
  m_Script: {fileID: 11500000, guid: 8e6292b2c06870d4495f009f912b9600, type: 3}
  m_Name: BOTD Converted Demo (Unistorm)
  m_EditorClassIdentifier: 
  settings:
  - {fileID: 114229344408212308}
  - {fileID: 114073666357957778}
  - {fileID: 114763786857327874}
  - {fileID: 114510108309657538}
  - {fileID: 114518644159745408}
  - {fileID: 114784952189149468}
  - {fileID: 114072131421009998}
  - {fileID: 114533015078648500}
  - {fileID: 114852983869333560}
  - {fileID: 114116121707837984}
  - {fileID: 114184959804551544}
--- !u!114 &114072131421009998
MonoBehaviour:
  m_ObjectHideFlags: 3
  m_CorrespondingSourceObject: {fileID: 0}
  m_PrefabInstance: {fileID: 0}
  m_PrefabAsset: {fileID: 0}
  m_GameObject: {fileID: 0}
  m_Enabled: 1
  m_EditorHideFlags: 0
  m_Script: {fileID: 11500000, guid: d65e486e4de6e5448a8fbb43dc8756a0, type: 3}
  m_Name: Grain
  m_EditorClassIdentifier: 
  active: 1
  enabled:
    overrideState: 1
    value: 1
  colored:
    overrideState: 0
    value: 1
  intensity:
    overrideState: 0
    value: 0
  size:
    overrideState: 0
    value: 1
  lumContrib:
    overrideState: 0
    value: 0.8
--- !u!114 &114073666357957778
MonoBehaviour:
  m_ObjectHideFlags: 3
  m_CorrespondingSourceObject: {fileID: 0}
  m_PrefabInstance: {fileID: 0}
  m_PrefabAsset: {fileID: 0}
  m_GameObject: {fileID: 0}
  m_Enabled: 1
  m_EditorHideFlags: 0
  m_Script: {fileID: 11500000, guid: b3f6f3f7c722b4544b97e3c75840aa33, type: 3}
  m_Name: AutoExposure
  m_EditorClassIdentifier: 
  active: 1
  enabled:
    overrideState: 1
    value: 1
  filtering:
    overrideState: 1
    value: {x: 49.535545, y: 94.535545}
  minLuminance:
    overrideState: 1
    value: -0.25
  maxLuminance:
    overrideState: 1
    value: 0.5
  keyValue:
    overrideState: 1
    value: 1
  eyeAdaptation:
    overrideState: 1
    value: 0
  speedUp:
    overrideState: 1
    value: 2
  speedDown:
    overrideState: 1
    value: 1
--- !u!114 &114116121707837984
MonoBehaviour:
  m_ObjectHideFlags: 3
  m_CorrespondingSourceObject: {fileID: 0}
  m_PrefabInstance: {fileID: 0}
  m_PrefabAsset: {fileID: 0}
  m_GameObject: {fileID: 0}
  m_Enabled: 1
  m_EditorHideFlags: 0
  m_Script: {fileID: 11500000, guid: 7a34fa72bd4185749832024e9c8010bf, type: 3}
  m_Name: ScreenSpaceReflections
  m_EditorClassIdentifier: 
  active: 1
  enabled:
    overrideState: 1
    value: 1
  preset:
    overrideState: 1
    value: 1
  maximumIterationCount:
    overrideState: 1
    value: 16
  resolution:
    overrideState: 1
    value: 0
  thickness:
    overrideState: 1
    value: 8
  maximumMarchDistance:
    overrideState: 1
    value: 100
  distanceFade:
    overrideState: 1
    value: 0.5
  vignette:
    overrideState: 1
    value: 0.5
--- !u!114 &114184959804551544
MonoBehaviour:
  m_ObjectHideFlags: 3
  m_CorrespondingSourceObject: {fileID: 0}
  m_PrefabInstance: {fileID: 0}
  m_PrefabAsset: {fileID: 0}
  m_GameObject: {fileID: 0}
  m_Enabled: 1
  m_EditorHideFlags: 0
  m_Script: {fileID: 11500000, guid: 40b924e2dad56384a8df2a1e111bb675, type: 3}
  m_Name: Vignette
  m_EditorClassIdentifier: 
  active: 1
  enabled:
    overrideState: 1
    value: 1
  mode:
    overrideState: 0
    value: 0
  color:
    overrideState: 0
    value: {r: 0, g: 0, b: 0, a: 1}
  center:
    overrideState: 0
    value: {x: 0.5, y: 0.5}
  intensity:
    overrideState: 1
    value: 0.3
  smoothness:
    overrideState: 1
    value: 0.7
  roundness:
    overrideState: 0
    value: 1
  rounded:
    overrideState: 0
    value: 0
  mask:
    overrideState: 0
    value: {fileID: 0}
    defaultState: 1
  opacity:
    overrideState: 0
    value: 1
--- !u!114 &114229344408212308
MonoBehaviour:
  m_ObjectHideFlags: 3
  m_CorrespondingSourceObject: {fileID: 0}
  m_PrefabInstance: {fileID: 0}
  m_PrefabAsset: {fileID: 0}
  m_GameObject: {fileID: 0}
  m_Enabled: 1
  m_EditorHideFlags: 0
  m_Script: {fileID: 11500000, guid: c1cb7e9e120078f43bce4f0b1be547a7, type: 3}
  m_Name: AmbientOcclusion
  m_EditorClassIdentifier: 
  active: 1
  enabled:
    overrideState: 1
    value: 1
  mode:
    overrideState: 1
    value: 0
  intensity:
    overrideState: 1
    value: 1
  color:
    overrideState: 1
    value: {r: 0, g: 0, b: 0, a: 1}
  ambientOnly:
    overrideState: 1
    value: 1
  noiseFilterTolerance:
    overrideState: 0
    value: 0
  blurTolerance:
    overrideState: 0
    value: -4.6
  upsampleTolerance:
    overrideState: 0
    value: -12
  thicknessModifier:
    overrideState: 1
    value: 1
  directLightingStrength:
    overrideState: 0
    value: 0
  radius:
    overrideState: 0
    value: 0.25
  quality:
    overrideState: 0
    value: 2
--- !u!114 &114510108309657538
MonoBehaviour:
  m_ObjectHideFlags: 3
  m_CorrespondingSourceObject: {fileID: 0}
  m_PrefabInstance: {fileID: 0}
  m_PrefabAsset: {fileID: 0}
  m_GameObject: {fileID: 0}
  m_Enabled: 1
  m_EditorHideFlags: 0
  m_Script: {fileID: 11500000, guid: 6050e2d5de785ce4d931e4dbdbf2d755, type: 3}
  m_Name: ChromaticAberration
  m_EditorClassIdentifier: 
  active: 1
  enabled:
    overrideState: 1
    value: 1
  spectralLut:
    overrideState: 0
    value: {fileID: 0}
    defaultState: 1
  intensity:
    overrideState: 1
    value: 0.05
  fastMode:
    overrideState: 0
    value: 0
--- !u!114 &114518644159745408
MonoBehaviour:
  m_ObjectHideFlags: 3
  m_CorrespondingSourceObject: {fileID: 0}
  m_PrefabInstance: {fileID: 0}
  m_PrefabAsset: {fileID: 0}
  m_GameObject: {fileID: 0}
  m_Enabled: 1
  m_EditorHideFlags: 0
  m_Script: {fileID: 11500000, guid: adb84e30e02715445aeb9959894e3b4d, type: 3}
  m_Name: ColorGrading
  m_EditorClassIdentifier: 
  active: 1
  enabled:
    overrideState: 1
    value: 1
  gradingMode:
    overrideState: 1
    value: 1
  externalLut:
    overrideState: 0
    value: {fileID: 0}
    defaultState: 1
  tonemapper:
    overrideState: 1
    value: 2
  toneCurveToeStrength:
    overrideState: 0
    value: 0
  toneCurveToeLength:
    overrideState: 0
    value: 0.5
  toneCurveShoulderStrength:
    overrideState: 0
    value: 0
  toneCurveShoulderLength:
    overrideState: 0
    value: 0.5
  toneCurveShoulderAngle:
    overrideState: 0
    value: 0
  toneCurveGamma:
    overrideState: 0
    value: 1
  ldrLut:
    overrideState: 0
    value: {fileID: 0}
    defaultState: 4
  ldrLutContribution:
    overrideState: 0
    value: 1
  temperature:
    overrideState: 1
    value: 29.5
  tint:
    overrideState: 1
    value: 0
  colorFilter:
    overrideState: 1
    value: {r: 1, g: 1, b: 1, a: 1}
  hueShift:
    overrideState: 0
    value: 0
  saturation:
    overrideState: 1
    value: -11.6
  brightness:
    overrideState: 0
    value: 0
  postExposure:
    overrideState: 1
    value: 0
  contrast:
    overrideState: 1
    value: 10.6
  mixerRedOutRedIn:
    overrideState: 0
    value: 100
  mixerRedOutGreenIn:
    overrideState: 0
    value: 0
  mixerRedOutBlueIn:
    overrideState: 0
    value: 0
  mixerGreenOutRedIn:
    overrideState: 0
    value: 0
  mixerGreenOutGreenIn:
    overrideState: 0
    value: 100
  mixerGreenOutBlueIn:
    overrideState: 0
    value: 0
  mixerBlueOutRedIn:
    overrideState: 0
    value: 0
  mixerBlueOutGreenIn:
    overrideState: 0
    value: 0
  mixerBlueOutBlueIn:
    overrideState: 0
    value: 100
  lift:
    overrideState: 1
    value: {x: 0.9138925, y: 1, z: 0.98406726, w: 0.07655502}
  gamma:
    overrideState: 1
    value: {x: 0.993211, y: 0.979663, z: 1, w: -0.047846902}
  gain:
    overrideState: 1
    value: {x: 1, y: 0.94516313, z: 0.91089714, w: -0.10526316}
  masterCurve:
    overrideState: 0
    value:
      curve:
        serializedVersion: 2
        m_Curve:
        - serializedVersion: 3
          time: 0
          value: 0
          inSlope: 1
          outSlope: 1
          tangentMode: 0
          weightedMode: 0
          inWeight: 0
          outWeight: 0
        - serializedVersion: 3
          time: 1
          value: 1
          inSlope: 1
          outSlope: 1
          tangentMode: 0
          weightedMode: 0
          inWeight: 0
          outWeight: 0
        m_PreInfinity: 2
        m_PostInfinity: 2
        m_RotationOrder: 4
      m_Loop: 0
      m_ZeroValue: 0
      m_Range: 1
      cachedData:
      - 0
      - 0.0078125
      - 0.015625
      - 0.0234375
      - 0.03125
      - 0.0390625
      - 0.046875
      - 0.0546875
      - 0.0625
      - 0.0703125
      - 0.078125
      - 0.0859375
      - 0.09375
      - 0.1015625
      - 0.109375
      - 0.1171875
      - 0.125
      - 0.1328125
      - 0.140625
      - 0.1484375
      - 0.15625
      - 0.1640625
      - 0.171875
      - 0.1796875
      - 0.1875
      - 0.1953125
      - 0.203125
      - 0.2109375
      - 0.21875
      - 0.2265625
      - 0.234375
      - 0.2421875
      - 0.25
      - 0.2578125
      - 0.265625
      - 0.2734375
      - 0.28125
      - 0.2890625
      - 0.296875
      - 0.3046875
      - 0.3125
      - 0.3203125
      - 0.328125
      - 0.3359375
      - 0.34375
      - 0.3515625
      - 0.359375
      - 0.3671875
      - 0.375
      - 0.3828125
      - 0.390625
      - 0.3984375
      - 0.40625
      - 0.4140625
      - 0.421875
      - 0.4296875
      - 0.4375
      - 0.4453125
      - 0.453125
      - 0.4609375
      - 0.46875
      - 0.4765625
      - 0.484375
      - 0.4921875
      - 0.5
      - 0.5078125
      - 0.515625
      - 0.5234375
      - 0.53125
      - 0.5390625
      - 0.546875
      - 0.5546875
      - 0.5625
      - 0.5703125
      - 0.578125
      - 0.5859375
      - 0.59375
      - 0.6015625
      - 0.609375
      - 0.6171875
      - 0.625
      - 0.6328125
      - 0.640625
      - 0.6484375
      - 0.65625
      - 0.6640625
      - 0.671875
      - 0.6796875
      - 0.6875
      - 0.6953125
      - 0.703125
      - 0.7109375
      - 0.71875
      - 0.7265625
      - 0.734375
      - 0.7421875
      - 0.75
      - 0.7578125
      - 0.765625
      - 0.7734375
      - 0.78125
      - 0.7890625
      - 0.796875
      - 0.8046875
      - 0.8125
      - 0.8203125
      - 0.828125
      - 0.8359375
      - 0.84375
      - 0.8515625
      - 0.859375
      - 0.8671875
      - 0.875
      - 0.8828125
      - 0.890625
      - 0.8984375
      - 0.90625
      - 0.9140625
      - 0.921875
      - 0.9296875
      - 0.9375
      - 0.9453125
      - 0.953125
      - 0.9609375
      - 0.96875
      - 0.9765625
      - 0.984375
      - 0.9921875
  redCurve:
    overrideState: 0
    value:
      curve:
        serializedVersion: 2
        m_Curve:
        - serializedVersion: 3
          time: 0
          value: 0
          inSlope: 1
          outSlope: 1
          tangentMode: 0
          weightedMode: 0
          inWeight: 0
          outWeight: 0
        - serializedVersion: 3
          time: 1
          value: 1
          inSlope: 1
          outSlope: 1
          tangentMode: 0
          weightedMode: 0
          inWeight: 0
          outWeight: 0
        m_PreInfinity: 2
        m_PostInfinity: 2
        m_RotationOrder: 4
      m_Loop: 0
      m_ZeroValue: 0
      m_Range: 1
      cachedData:
      - 0
      - 0.0078125
      - 0.015625
      - 0.0234375
      - 0.03125
      - 0.0390625
      - 0.046875
      - 0.0546875
      - 0.0625
      - 0.0703125
      - 0.078125
      - 0.0859375
      - 0.09375
      - 0.1015625
      - 0.109375
      - 0.1171875
      - 0.125
      - 0.1328125
      - 0.140625
      - 0.1484375
      - 0.15625
      - 0.1640625
      - 0.171875
      - 0.1796875
      - 0.1875
      - 0.1953125
      - 0.203125
      - 0.2109375
      - 0.21875
      - 0.2265625
      - 0.234375
      - 0.2421875
      - 0.25
      - 0.2578125
      - 0.265625
      - 0.2734375
      - 0.28125
      - 0.2890625
      - 0.296875
      - 0.3046875
      - 0.3125
      - 0.3203125
      - 0.328125
      - 0.3359375
      - 0.34375
      - 0.3515625
      - 0.359375
      - 0.3671875
      - 0.375
      - 0.3828125
      - 0.390625
      - 0.3984375
      - 0.40625
      - 0.4140625
      - 0.421875
      - 0.4296875
      - 0.4375
      - 0.4453125
      - 0.453125
      - 0.4609375
      - 0.46875
      - 0.4765625
      - 0.484375
      - 0.4921875
      - 0.5
      - 0.5078125
      - 0.515625
      - 0.5234375
      - 0.53125
      - 0.5390625
      - 0.546875
      - 0.5546875
      - 0.5625
      - 0.5703125
      - 0.578125
      - 0.5859375
      - 0.59375
      - 0.6015625
      - 0.609375
      - 0.6171875
      - 0.625
      - 0.6328125
      - 0.640625
      - 0.6484375
      - 0.65625
      - 0.6640625
      - 0.671875
      - 0.6796875
      - 0.6875
      - 0.6953125
      - 0.703125
      - 0.7109375
      - 0.71875
      - 0.7265625
      - 0.734375
      - 0.7421875
      - 0.75
      - 0.7578125
      - 0.765625
      - 0.7734375
      - 0.78125
      - 0.7890625
      - 0.796875
      - 0.8046875
      - 0.8125
      - 0.8203125
      - 0.828125
      - 0.8359375
      - 0.84375
      - 0.8515625
      - 0.859375
      - 0.8671875
      - 0.875
      - 0.8828125
      - 0.890625
      - 0.8984375
      - 0.90625
      - 0.9140625
      - 0.921875
      - 0.9296875
      - 0.9375
      - 0.9453125
      - 0.953125
      - 0.9609375
      - 0.96875
      - 0.9765625
      - 0.984375
      - 0.9921875
  greenCurve:
    overrideState: 0
    value:
      curve:
        serializedVersion: 2
        m_Curve:
        - serializedVersion: 3
          time: 0
          value: 0
          inSlope: 1
          outSlope: 1
          tangentMode: 0
          weightedMode: 0
          inWeight: 0
          outWeight: 0
        - serializedVersion: 3
          time: 1
          value: 1
          inSlope: 1
          outSlope: 1
          tangentMode: 0
          weightedMode: 0
          inWeight: 0
          outWeight: 0
        m_PreInfinity: 2
        m_PostInfinity: 2
        m_RotationOrder: 4
      m_Loop: 0
      m_ZeroValue: 0
      m_Range: 1
      cachedData:
      - 0
      - 0.0078125
      - 0.015625
      - 0.0234375
      - 0.03125
      - 0.0390625
      - 0.046875
      - 0.0546875
      - 0.0625
      - 0.0703125
      - 0.078125
      - 0.0859375
      - 0.09375
      - 0.1015625
      - 0.109375
      - 0.1171875
      - 0.125
      - 0.1328125
      - 0.140625
      - 0.1484375
      - 0.15625
      - 0.1640625
      - 0.171875
      - 0.1796875
      - 0.1875
      - 0.1953125
      - 0.203125
      - 0.2109375
      - 0.21875
      - 0.2265625
      - 0.234375
      - 0.2421875
      - 0.25
      - 0.2578125
      - 0.265625
      - 0.2734375
      - 0.28125
      - 0.2890625
      - 0.296875
      - 0.3046875
      - 0.3125
      - 0.3203125
      - 0.328125
      - 0.3359375
      - 0.34375
      - 0.3515625
      - 0.359375
      - 0.3671875
      - 0.375
      - 0.3828125
      - 0.390625
      - 0.3984375
      - 0.40625
      - 0.4140625
      - 0.421875
      - 0.4296875
      - 0.4375
      - 0.4453125
      - 0.453125
      - 0.4609375
      - 0.46875
      - 0.4765625
      - 0.484375
      - 0.4921875
      - 0.5
      - 0.5078125
      - 0.515625
      - 0.5234375
      - 0.53125
      - 0.5390625
      - 0.546875
      - 0.5546875
      - 0.5625
      - 0.5703125
      - 0.578125
      - 0.5859375
      - 0.59375
      - 0.6015625
      - 0.609375
      - 0.6171875
      - 0.625
      - 0.6328125
      - 0.640625
      - 0.6484375
      - 0.65625
      - 0.6640625
      - 0.671875
      - 0.6796875
      - 0.6875
      - 0.6953125
      - 0.703125
      - 0.7109375
      - 0.71875
      - 0.7265625
      - 0.734375
      - 0.7421875
      - 0.75
      - 0.7578125
      - 0.765625
      - 0.7734375
      - 0.78125
      - 0.7890625
      - 0.796875
      - 0.8046875
      - 0.8125
      - 0.8203125
      - 0.828125
      - 0.8359375
      - 0.84375
      - 0.8515625
      - 0.859375
      - 0.8671875
      - 0.875
      - 0.8828125
      - 0.890625
      - 0.8984375
      - 0.90625
      - 0.9140625
      - 0.921875
      - 0.9296875
      - 0.9375
      - 0.9453125
      - 0.953125
      - 0.9609375
      - 0.96875
      - 0.9765625
      - 0.984375
      - 0.9921875
  blueCurve:
    overrideState: 0
    value:
      curve:
        serializedVersion: 2
        m_Curve:
        - serializedVersion: 3
          time: 0
          value: 0
          inSlope: 1
          outSlope: 1
          tangentMode: 0
          weightedMode: 0
          inWeight: 0
          outWeight: 0
        - serializedVersion: 3
          time: 1
          value: 1
          inSlope: 1
          outSlope: 1
          tangentMode: 0
          weightedMode: 0
          inWeight: 0
          outWeight: 0
        m_PreInfinity: 2
        m_PostInfinity: 2
        m_RotationOrder: 4
      m_Loop: 0
      m_ZeroValue: 0
      m_Range: 1
      cachedData:
      - 0
      - 0.0078125
      - 0.015625
      - 0.0234375
      - 0.03125
      - 0.0390625
      - 0.046875
      - 0.0546875
      - 0.0625
      - 0.0703125
      - 0.078125
      - 0.0859375
      - 0.09375
      - 0.1015625
      - 0.109375
      - 0.1171875
      - 0.125
      - 0.1328125
      - 0.140625
      - 0.1484375
      - 0.15625
      - 0.1640625
      - 0.171875
      - 0.1796875
      - 0.1875
      - 0.1953125
      - 0.203125
      - 0.2109375
      - 0.21875
      - 0.2265625
      - 0.234375
      - 0.2421875
      - 0.25
      - 0.2578125
      - 0.265625
      - 0.2734375
      - 0.28125
      - 0.2890625
      - 0.296875
      - 0.3046875
      - 0.3125
      - 0.3203125
      - 0.328125
      - 0.3359375
      - 0.34375
      - 0.3515625
      - 0.359375
      - 0.3671875
      - 0.375
      - 0.3828125
      - 0.390625
      - 0.3984375
      - 0.40625
      - 0.4140625
      - 0.421875
      - 0.4296875
      - 0.4375
      - 0.4453125
      - 0.453125
      - 0.4609375
      - 0.46875
      - 0.4765625
      - 0.484375
      - 0.4921875
      - 0.5
      - 0.5078125
      - 0.515625
      - 0.5234375
      - 0.53125
      - 0.5390625
      - 0.546875
      - 0.5546875
      - 0.5625
      - 0.5703125
      - 0.578125
      - 0.5859375
      - 0.59375
      - 0.6015625
      - 0.609375
      - 0.6171875
      - 0.625
      - 0.6328125
      - 0.640625
      - 0.6484375
      - 0.65625
      - 0.6640625
      - 0.671875
      - 0.6796875
      - 0.6875
      - 0.6953125
      - 0.703125
      - 0.7109375
      - 0.71875
      - 0.7265625
      - 0.734375
      - 0.7421875
      - 0.75
      - 0.7578125
      - 0.765625
      - 0.7734375
      - 0.78125
      - 0.7890625
      - 0.796875
      - 0.8046875
      - 0.8125
      - 0.8203125
      - 0.828125
      - 0.8359375
      - 0.84375
      - 0.8515625
      - 0.859375
      - 0.8671875
      - 0.875
      - 0.8828125
      - 0.890625
      - 0.8984375
      - 0.90625
      - 0.9140625
      - 0.921875
      - 0.9296875
      - 0.9375
      - 0.9453125
      - 0.953125
      - 0.9609375
      - 0.96875
      - 0.9765625
      - 0.984375
      - 0.9921875
  hueVsHueCurve:
    overrideState: 0
    value:
      curve:
        serializedVersion: 2
        m_Curve: []
        m_PreInfinity: 2
        m_PostInfinity: 2
        m_RotationOrder: 4
      m_Loop: 1
      m_ZeroValue: 0.5
      m_Range: 1
      cachedData:
      - 0.5
      - 0.5
      - 0.5
      - 0.5
      - 0.5
      - 0.5
      - 0.5
      - 0.5
      - 0.5
      - 0.5
      - 0.5
      - 0.5
      - 0.5
      - 0.5
      - 0.5
      - 0.5
      - 0.5
      - 0.5
      - 0.5
      - 0.5
      - 0.5
      - 0.5
      - 0.5
      - 0.5
      - 0.5
      - 0.5
      - 0.5
      - 0.5
      - 0.5
      - 0.5
      - 0.5
      - 0.5
      - 0.5
      - 0.5
      - 0.5
      - 0.5
      - 0.5
      - 0.5
      - 0.5
      - 0.5
      - 0.5
      - 0.5
      - 0.5
      - 0.5
      - 0.5
      - 0.5
      - 0.5
      - 0.5
      - 0.5
      - 0.5
      - 0.5
      - 0.5
      - 0.5
      - 0.5
      - 0.5
      - 0.5
      - 0.5
      - 0.5
      - 0.5
      - 0.5
      - 0.5
      - 0.5
      - 0.5
      - 0.5
      - 0.5
      - 0.5
      - 0.5
      - 0.5
      - 0.5
      - 0.5
      - 0.5
      - 0.5
      - 0.5
      - 0.5
      - 0.5
      - 0.5
      - 0.5
      - 0.5
      - 0.5
      - 0.5
      - 0.5
      - 0.5
      - 0.5
      - 0.5
      - 0.5
      - 0.5
      - 0.5
      - 0.5
      - 0.5
      - 0.5
      - 0.5
      - 0.5
      - 0.5
      - 0.5
      - 0.5
      - 0.5
      - 0.5
      - 0.5
      - 0.5
      - 0.5
      - 0.5
      - 0.5
      - 0.5
      - 0.5
      - 0.5
      - 0.5
      - 0.5
      - 0.5
      - 0.5
      - 0.5
      - 0.5
      - 0.5
      - 0.5
      - 0.5
      - 0.5
      - 0.5
      - 0.5
      - 0.5
      - 0.5
      - 0.5
      - 0.5
      - 0.5
      - 0.5
      - 0.5
      - 0.5
      - 0.5
      - 0.5
      - 0.5
  hueVsSatCurve:
    overrideState: 0
    value:
      curve:
        serializedVersion: 2
        m_Curve: []
        m_PreInfinity: 2
        m_PostInfinity: 2
        m_RotationOrder: 4
      m_Loop: 1
      m_ZeroValue: 0.5
      m_Range: 1
      cachedData:
      - 0.5
      - 0.5
      - 0.5
      - 0.5
      - 0.5
      - 0.5
      - 0.5
      - 0.5
      - 0.5
      - 0.5
      - 0.5
      - 0.5
      - 0.5
      - 0.5
      - 0.5
      - 0.5
      - 0.5
      - 0.5
      - 0.5
      - 0.5
      - 0.5
      - 0.5
      - 0.5
      - 0.5
      - 0.5
      - 0.5
      - 0.5
      - 0.5
      - 0.5
      - 0.5
      - 0.5
      - 0.5
      - 0.5
      - 0.5
      - 0.5
      - 0.5
      - 0.5
      - 0.5
      - 0.5
      - 0.5
      - 0.5
      - 0.5
      - 0.5
      - 0.5
      - 0.5
      - 0.5
      - 0.5
      - 0.5
      - 0.5
      - 0.5
      - 0.5
      - 0.5
      - 0.5
      - 0.5
      - 0.5
      - 0.5
      - 0.5
      - 0.5
      - 0.5
      - 0.5
      - 0.5
      - 0.5
      - 0.5
      - 0.5
      - 0.5
      - 0.5
      - 0.5
      - 0.5
      - 0.5
      - 0.5
      - 0.5
      - 0.5
      - 0.5
      - 0.5
      - 0.5
      - 0.5
      - 0.5
      - 0.5
      - 0.5
      - 0.5
      - 0.5
      - 0.5
      - 0.5
      - 0.5
      - 0.5
      - 0.5
      - 0.5
      - 0.5
      - 0.5
      - 0.5
      - 0.5
      - 0.5
      - 0.5
      - 0.5
      - 0.5
      - 0.5
      - 0.5
      - 0.5
      - 0.5
      - 0.5
      - 0.5
      - 0.5
      - 0.5
      - 0.5
      - 0.5
      - 0.5
      - 0.5
      - 0.5
      - 0.5
      - 0.5
      - 0.5
      - 0.5
      - 0.5
      - 0.5
      - 0.5
      - 0.5
      - 0.5
      - 0.5
      - 0.5
      - 0.5
      - 0.5
      - 0.5
      - 0.5
      - 0.5
      - 0.5
      - 0.5
      - 0.5
      - 0.5
  satVsSatCurve:
    overrideState: 0
    value:
      curve:
        serializedVersion: 2
        m_Curve: []
        m_PreInfinity: 2
        m_PostInfinity: 2
        m_RotationOrder: 4
      m_Loop: 0
      m_ZeroValue: 0.5
      m_Range: 1
      cachedData:
      - 0.5
      - 0.5
      - 0.5
      - 0.5
      - 0.5
      - 0.5
      - 0.5
      - 0.5
      - 0.5
      - 0.5
      - 0.5
      - 0.5
      - 0.5
      - 0.5
      - 0.5
      - 0.5
      - 0.5
      - 0.5
      - 0.5
      - 0.5
      - 0.5
      - 0.5
      - 0.5
      - 0.5
      - 0.5
      - 0.5
      - 0.5
      - 0.5
      - 0.5
      - 0.5
      - 0.5
      - 0.5
      - 0.5
      - 0.5
      - 0.5
      - 0.5
      - 0.5
      - 0.5
      - 0.5
      - 0.5
      - 0.5
      - 0.5
      - 0.5
      - 0.5
      - 0.5
      - 0.5
      - 0.5
      - 0.5
      - 0.5
      - 0.5
      - 0.5
      - 0.5
      - 0.5
      - 0.5
      - 0.5
      - 0.5
      - 0.5
      - 0.5
      - 0.5
      - 0.5
      - 0.5
      - 0.5
      - 0.5
      - 0.5
      - 0.5
      - 0.5
      - 0.5
      - 0.5
      - 0.5
      - 0.5
      - 0.5
      - 0.5
      - 0.5
      - 0.5
      - 0.5
      - 0.5
      - 0.5
      - 0.5
      - 0.5
      - 0.5
      - 0.5
      - 0.5
      - 0.5
      - 0.5
      - 0.5
      - 0.5
      - 0.5
      - 0.5
      - 0.5
      - 0.5
      - 0.5
      - 0.5
      - 0.5
      - 0.5
      - 0.5
      - 0.5
      - 0.5
      - 0.5
      - 0.5
      - 0.5
      - 0.5
      - 0.5
      - 0.5
      - 0.5
      - 0.5
      - 0.5
      - 0.5
      - 0.5
      - 0.5
      - 0.5
      - 0.5
      - 0.5
      - 0.5
      - 0.5
      - 0.5
      - 0.5
      - 0.5
      - 0.5
      - 0.5
      - 0.5
      - 0.5
      - 0.5
      - 0.5
      - 0.5
      - 0.5
      - 0.5
      - 0.5
      - 0.5
  lumVsSatCurve:
    overrideState: 0
    value:
      curve:
        serializedVersion: 2
        m_Curve: []
        m_PreInfinity: 2
        m_PostInfinity: 2
        m_RotationOrder: 4
      m_Loop: 0
      m_ZeroValue: 0.5
      m_Range: 1
      cachedData:
      - 0.5
      - 0.5
      - 0.5
      - 0.5
      - 0.5
      - 0.5
      - 0.5
      - 0.5
      - 0.5
      - 0.5
      - 0.5
      - 0.5
      - 0.5
      - 0.5
      - 0.5
      - 0.5
      - 0.5
      - 0.5
      - 0.5
      - 0.5
      - 0.5
      - 0.5
      - 0.5
      - 0.5
      - 0.5
      - 0.5
      - 0.5
      - 0.5
      - 0.5
      - 0.5
      - 0.5
      - 0.5
      - 0.5
      - 0.5
      - 0.5
      - 0.5
      - 0.5
      - 0.5
      - 0.5
      - 0.5
      - 0.5
      - 0.5
      - 0.5
      - 0.5
      - 0.5
      - 0.5
      - 0.5
      - 0.5
      - 0.5
      - 0.5
      - 0.5
      - 0.5
      - 0.5
      - 0.5
      - 0.5
      - 0.5
      - 0.5
      - 0.5
      - 0.5
      - 0.5
      - 0.5
      - 0.5
      - 0.5
      - 0.5
      - 0.5
      - 0.5
      - 0.5
      - 0.5
      - 0.5
      - 0.5
      - 0.5
      - 0.5
      - 0.5
      - 0.5
      - 0.5
      - 0.5
      - 0.5
      - 0.5
      - 0.5
      - 0.5
      - 0.5
      - 0.5
      - 0.5
      - 0.5
      - 0.5
      - 0.5
      - 0.5
      - 0.5
      - 0.5
      - 0.5
      - 0.5
      - 0.5
      - 0.5
      - 0.5
      - 0.5
      - 0.5
      - 0.5
      - 0.5
      - 0.5
      - 0.5
      - 0.5
      - 0.5
      - 0.5
      - 0.5
      - 0.5
      - 0.5
      - 0.5
      - 0.5
      - 0.5
      - 0.5
      - 0.5
      - 0.5
      - 0.5
      - 0.5
      - 0.5
      - 0.5
      - 0.5
      - 0.5
      - 0.5
      - 0.5
      - 0.5
      - 0.5
      - 0.5
      - 0.5
      - 0.5
      - 0.5
      - 0.5
      - 0.5
--- !u!114 &114533015078648500
MonoBehaviour:
  m_ObjectHideFlags: 3
  m_CorrespondingSourceObject: {fileID: 0}
  m_PrefabInstance: {fileID: 0}
  m_PrefabAsset: {fileID: 0}
  m_GameObject: {fileID: 0}
  m_Enabled: 1
  m_EditorHideFlags: 0
  m_Script: {fileID: 11500000, guid: 9b77c5407dc277943b591ade9e6b18c5, type: 3}
  m_Name: LensDistortion
  m_EditorClassIdentifier: 
  active: 0
  enabled:
    overrideState: 1
    value: 1
  intensity:
    overrideState: 1
    value: -10
  intensityX:
    overrideState: 0
    value: 1
  intensityY:
    overrideState: 0
    value: 1
  centerX:
    overrideState: 0
    value: 0
  centerY:
    overrideState: 0
    value: 0
  scale:
    overrideState: 0
    value: 1
--- !u!114 &114763786857327874
MonoBehaviour:
  m_ObjectHideFlags: 3
  m_CorrespondingSourceObject: {fileID: 0}
  m_PrefabInstance: {fileID: 0}
  m_PrefabAsset: {fileID: 0}
  m_GameObject: {fileID: 0}
  m_Enabled: 1
  m_EditorHideFlags: 0
  m_Script: {fileID: 11500000, guid: 48a79b01ea5641d4aa6daa2e23605641, type: 3}
  m_Name: Bloom
  m_EditorClassIdentifier: 
  active: 1
  enabled:
    overrideState: 1
    value: 1
  intensity:
    overrideState: 1
    value: 8
  threshold:
    overrideState: 1
    value: 2
  softKnee:
    overrideState: 1
    value: 1
  clamp:
    overrideState: 1
    value: 65472
  diffusion:
    overrideState: 1
    value: 9.08
  anamorphicRatio:
    overrideState: 1
    value: -0.1
  color:
    overrideState: 1
    value: {r: 1, g: 1, b: 1, a: 1}
  fastMode:
    overrideState: 1
    value: 0
  dirtTexture:
    overrideState: 1
    value: {fileID: 2800000, guid: a2960ffde020f27409e070d92fb2e00b, type: 3}
    defaultState: 1
  dirtIntensity:
    overrideState: 1
    value: 10
--- !u!114 &114784952189149468
MonoBehaviour:
  m_ObjectHideFlags: 3
  m_CorrespondingSourceObject: {fileID: 0}
  m_PrefabInstance: {fileID: 0}
  m_PrefabAsset: {fileID: 0}
  m_GameObject: {fileID: 0}
  m_Enabled: 1
  m_EditorHideFlags: 0
  m_Script: {fileID: 11500000, guid: 556797029e73b2347956b6579e77e05b, type: 3}
  m_Name: DepthOfField
  m_EditorClassIdentifier: 
  active: 1
  enabled:
    overrideState: 1
    value: 1
  focusDistance:
    overrideState: 1
    value: 0.78
  aperture:
    overrideState: 1
    value: 16.5
  focalLength:
    overrideState: 1
    value: 40
  kernelSize:
    overrideState: 1
    value: 3
--- !u!114 &114852983869333560
MonoBehaviour:
  m_ObjectHideFlags: 3
  m_CorrespondingSourceObject: {fileID: 0}
  m_PrefabInstance: {fileID: 0}
  m_PrefabAsset: {fileID: 0}
  m_GameObject: {fileID: 0}
  m_Enabled: 1
  m_EditorHideFlags: 0
  m_Script: {fileID: 11500000, guid: b94fcd11afffcb142908bfcb1e261fba, type: 3}
  m_Name: MotionBlur
  m_EditorClassIdentifier: 
  active: 1
  enabled:
    overrideState: 1
    value: 1
  shutterAngle:
    overrideState: 1
    value: 90
  sampleCount:
    overrideState: 1
    value: 10
