%YAML 1.1
%TAG !u! tag:unity3d.com,2011:
--- !u!1045 &1
EditorBuildSettings:
  m_ObjectHideFlags: 0
  serializedVersion: 2
  m_Scenes:
  - enabled: 1
    path: Assets/My Assets/Scenes/MenuScene.unity
    guid: e5887dccfe7dc4242a6460bf3d6fcdc4
  - enabled: 1
    path: Assets/My Assets/Scenes/GameScene.unity
    guid: 29ba48d47471c4d91a36b3dbcbdedf34
  m_configObjects: {}
